IMAGE
name=the-tennis-court-oath-20th-june-1789-1791
content=
style=

SCORES
rank=2
ColorDistributionMeasure=0.480948
ComplexityMeasure=0.936538
LivelinessMeasure=0.964916
LuminanceDistributionMeasure=0.802429
LuminanceRedundancyMeasure=1.0

MUTATIONS

METRICS
valuable=1
novel=0
surprising=1
creative=False


METRICS_VALUES
value_score=0.34875436366944657
novelty_score=0
surprise_score=1.0
